…
``` r
pengguna <- read_csv("../data-raw/001_ok-clean_pengguna.csv")
```

    ## Parsed with column specification:
    ## cols(
    ##   hari_promosi = col_double(),
    ##   jumlah_pengguna = col_double()
    ## )

``` r
pengguna
```

    ## # A tibble: 120 x 2
    ##    hari_promosi jumlah_pengguna
    ##           <dbl>           <dbl>
    ##  1            1            2660
    ##  2            2            1459
    ##  3            3            1831
    ##  4            4            1193
    ##  5            5            1803
    ##  6            6            1685
    ##  7            7            2318
    ##  8            8            2245
    ##  9            9            1928
    ## 10           10            1229
    ## # ... with 110 more rows
``` r
komplain <- read_csv("../data-raw/001_ok-clean_komplain.csv")
```

    ## Parsed with column specification:
    ## cols(
    ##   hari_promosi = col_double(),
    ##   jumlah_komplain = col_double()
    ## )

``` r
komplain
```

    ## # A tibble: 120 x 2
    ##    hari_promosi jumlah_komplain
    ##           <dbl>           <dbl>
    ##  1            1             256
    ##  2            2             136
    ##  3            3             174
    ##  4            4             110
    ##  5            5             171
    ##  6            6             161
    ##  7            7             224
    ##  8            8             218
    ##  9            9             186
    ## 10           10             116
    ## # ... with 110 more rows
``` r
keuntungan <- read_csv("../data-raw/001_ok-clean_keuntungan.csv")
```

    ## Parsed with column specification:
    ## cols(
    ##   hari_promosi = col_double(),
    ##   jumlah_keuntungan = col_double()
    ## )

``` r
keuntungan
```

    ## # A tibble: 120 x 2
    ##    hari_promosi jumlah_keuntungan
    ##           <dbl>             <dbl>
    ##  1            1          21275219
    ##  2            2          11630734
    ##  3            3          14589289
    ##  4            4           9410724
    ##  5            5          14288265
    ##  6            6          13222574
    ##  7            7          18274420
    ##  8            8          17681269
    ##  9            9          15121308
    ## 10           10           9456333
    ## # ... with 110 more rows
…
